Gitting the Crab data fixed
…
More

withDay03 <- read_csv("../analyses/withDay03.csv")

## Parsed with column specification:
## cols(
##   numblist = col_integer(),
##   Starting_Quantity = col_double(),
##   FRP = col_integer(),
##   sampleday = col_character()
## )

withDay03

## # A tibble: 924 x 4
##    numblist Starting_Quantity   FRP sampleday
##       <int>             <dbl> <int> <chr>    
##  1      379               0.2  6247 day01    
##  2      251               0.2  6260 day01    
##  3      214               0.2  6104 day01    
##  4      270               0.2  6166 day01    
##  5      190               0.2  6179 day01    
##  6      272               0.2  6156 day01    
##  7      383               0.2  6110 day01    
##  8      273               0.3  6259 day01    
##  9      226               0.3  6152 day01    
## 10       16               0.3  6112 day01    
## # ... with 914 more rows
…
Now what?

Putting it all together

left_join(prim_master, PCR_day01, by ="FRP") %>%
  left_join(PCR_day26, by ="FRP") %>%
  left_join(day9RNA, by ="FRP") %>%
  left_join(day12RNA, by ="FRP") %>%
  left_join(day26RNA, by ="FRP") %>%
  filter(RNAday9 > 0 | RNAday12 > 0 | RNAday26 > 0)

## # A tibble: 144 x 21
##    `FRP No.`   FRP `infection_cpcr-d0` maturity    CW    SC    CH holdtank
##    <chr>     <int>               <int> <chr>    <dbl> <int> <dbl> <chr>   
##  1 2017-6103  6103                   1 I         83.5     3  10.8 9A      
##  2 2017-6103  6103                   1 I         83.5     3  10.8 1C      
##  3 2017-6103  6103                   1 I         83.5     3  10.8 1C      
##  4 2017-6113  6113                   0 I        126.      3  19.1 7A      
##  5 2017-6113  6113                   0 I        126.      3  19.1 1C      
##  6 2017-6113  6113                   0 I        126.      3  19.1 1C      
##  7 2017-6117  6117                   0 I        117.      3  19.3 9A      
##  8 2017-6117  6117                   0 I        117.      3  19.3 2C      
##  9 2017-6117  6117                   0 I        117.      3  19.3 2C      
## 10 2017-6119  6119                   0 I         97.7     3  13.4 1C      
## # ... with 134 more rows, and 13 more variables: TREATMENT <chr>,
## #   lowtag <int>, hightag <int>, treattank <int>, where <chr>,
## #   tube_no <chr>, Avg_startq_day01 <dbl>, Avg_startq_day26 <dbl>,
## #   infection_status <int>, temperature_treatment <chr>, RNAday9 <dbl>,
## #   RNAday12 <dbl>, RNAday26 <dbl>
…
